LOGS
2018-02-17 14:38:47.019
	Action: my-tweets
2018-02-17 14:38:47.523
	Twitter Response:
2018-02-17 14:38:47.526
	Tweet 0: {"created_at":"Thu Feb 15 18:48:23 +0000 2018","id":964209793714995200,"id_str":"964209793714995200","text":"Testing out another tweet","truncated":false,"entities":{"hashtags":[],"symbols":[],"user_mentions":[],"urls":[]},"source":"<a href=\"http://twitter.com\" rel=\"nofollow\">Twitter Web Client</a>","in_reply_to_status_id":null,"in_reply_to_status_id_str":null,"in_reply_to_user_id":null,"in_reply_to_user_id_str":null,"in_reply_to_screen_name":null,"user":{"id":964193183415656400,"id_str":"964193183415656449","name":"Maddie","screen_name":"maddieCodes","location":"","description":"","url":null,"entities":{"description":{"urls":[]}},"protected":false,"followers_count":0,"friends_count":0,"listed_count":0,"created_at":"Thu Feb 15 17:42:23 +0000 2018","favourites_count":0,"utc_offset":null,"time_zone":null,"geo_enabled":false,"verified":false,"statuses_count":2,"lang":"en","contributors_enabled":false,"is_translator":false,"is_translation_enabled":false,"profile_background_color":"F5F8FA","profile_background_image_url":null,"profile_background_image_url_https":null,"profile_background_tile":false,"profile_image_url":"http://abs.twimg.com/sticky/default_profile_images/default_profile_normal.png","profile_image_url_https":"https://abs.twimg.com/sticky/default_profile_images/default_profile_normal.png","profile_link_color":"1DA1F2","profile_sidebar_border_color":"C0DEED","profile_sidebar_fill_color":"DDEEF6","profile_text_color":"333333","profile_use_background_image":true,"has_extended_profile":false,"default_profile":true,"default_profile_image":true,"following":false,"follow_request_sent":false,"notifications":false,"translator_type":"none"},"geo":null,"coordinates":null,"place":null,"contributors":null,"is_quote_status":false,"retweet_count":0,"favorite_count":0,"favorited":false,"retweeted":false,"lang":"en"}
2018-02-17 14:38:47.527
	Tweet 1: {"created_at":"Thu Feb 15 17:43:39 +0000 2018","id":964193504141500400,"id_str":"964193504141500417","text":"Hello Twitter! #myfirstTweet","truncated":false,"entities":{"hashtags":[{"text":"myfirstTweet","indices":[15,28]}],"symbols":[],"user_mentions":[],"urls":[]},"source":"<a href=\"http://twitter.com\" rel=\"nofollow\">Twitter Web Client</a>","in_reply_to_status_id":null,"in_reply_to_status_id_str":null,"in_reply_to_user_id":null,"in_reply_to_user_id_str":null,"in_reply_to_screen_name":null,"user":{"id":964193183415656400,"id_str":"964193183415656449","name":"Maddie","screen_name":"maddieCodes","location":"","description":"","url":null,"entities":{"description":{"urls":[]}},"protected":false,"followers_count":0,"friends_count":0,"listed_count":0,"created_at":"Thu Feb 15 17:42:23 +0000 2018","favourites_count":0,"utc_offset":null,"time_zone":null,"geo_enabled":false,"verified":false,"statuses_count":2,"lang":"en","contributors_enabled":false,"is_translator":false,"is_translation_enabled":false,"profile_background_color":"F5F8FA","profile_background_image_url":null,"profile_background_image_url_https":null,"profile_background_tile":false,"profile_image_url":"http://abs.twimg.com/sticky/default_profile_images/default_profile_normal.png","profile_image_url_https":"https://abs.twimg.com/sticky/default_profile_images/default_profile_normal.png","profile_link_color":"1DA1F2","profile_sidebar_border_color":"C0DEED","profile_sidebar_fill_color":"DDEEF6","profile_text_color":"333333","profile_use_background_image":true,"has_extended_profile":false,"default_profile":true,"default_profile_image":true,"following":false,"follow_request_sent":false,"notifications":false,"translator_type":"none"},"geo":null,"coordinates":null,"place":null,"contributors":null,"is_quote_status":false,"retweet_count":0,"favorite_count":2,"favorited":false,"retweeted":false,"lang":"no"}
2018-02-17 14:40:13.246
	Action: spotify-this-song
2018-02-17 14:40:14.400
	Spotify Response: {"tracks":{"href":"https://api.spotify.com/v1/search?query=Ace+of+Base+The+Sign&type=track&offset=0&limit=1","items":[{"album":{"album_type":"album","artists":[{"external_urls":{"spotify":"https://open.spotify.com/artist/5ksRONqssB7BR161NTtJAm"},"href":"https://api.spotify.com/v1/artists/5ksRONqssB7BR161NTtJAm","id":"5ksRONqssB7BR161NTtJAm","name":"Ace of Base","type":"artist","uri":"spotify:artist:5ksRONqssB7BR161NTtJAm"}],"available_markets":["AD","AR","AT","AU","BE","BG","BO","BR","CA","CH","CL","CO","CR","CY","CZ","DE","DK","DO","EC","EE","ES","FI","FR","GB","GR","GT","HK","HN","HU","ID","IE","IS","IT","JP","LI","LT","LU","LV","MC","MT","MX","MY","NI","NL","NO","NZ","PA","PE","PH","PL","PT","PY","SE","SG","SK","SV","TH","TR","TW","US","UY"],"external_urls":{"spotify":"https://open.spotify.com/album/5UwIyIyFzkM7wKeGtRJPgB"},"href":"https://api.spotify.com/v1/albums/5UwIyIyFzkM7wKeGtRJPgB","id":"5UwIyIyFzkM7wKeGtRJPgB","images":[{"height":600,"url":"https://i.scdn.co/image/420f7961d01701f6d4fe8fcd6c99fde0d13e7da7","width":600},{"height":300,"url":"https://i.scdn.co/image/14a8250ab9767f68eb58a7bcc1b2864dada763bf","width":300},{"height":64,"url":"https://i.scdn.co/image/81d371b69683de3224b978eff7d57d2e9ddc9994","width":64}],"name":"The Sign (US Album) [Remastered]","type":"album","uri":"spotify:album:5UwIyIyFzkM7wKeGtRJPgB"},"artists":[{"external_urls":{"spotify":"https://open.spotify.com/artist/5ksRONqssB7BR161NTtJAm"},"href":"https://api.spotify.com/v1/artists/5ksRONqssB7BR161NTtJAm","id":"5ksRONqssB7BR161NTtJAm","name":"Ace of Base","type":"artist","uri":"spotify:artist:5ksRONqssB7BR161NTtJAm"}],"available_markets":["AD","AR","AT","AU","BE","BG","BO","BR","CA","CH","CL","CO","CR","CY","CZ","DE","DK","DO","EC","EE","ES","FI","FR","GB","GR","GT","HK","HN","HU","ID","IE","IS","IT","JP","LI","LT","LU","LV","MC","MT","MX","MY","NI","NL","NO","NZ","PA","PE","PH","PL","PT","PY","SE","SG","SK","SV","TH","TR","TW","US","UY"],"disc_number":1,"duration_ms":191240,"explicit":false,"external_ids":{"isrc":"SEVJH0803404"},"external_urls":{"spotify":"https://open.spotify.com/track/0hrBpAOgrt8RXigk83LLNE"},"href":"https://api.spotify.com/v1/tracks/0hrBpAOgrt8RXigk83LLNE","id":"0hrBpAOgrt8RXigk83LLNE","name":"The Sign","popularity":70,"preview_url":"https://p.scdn.co/mp3-preview/4c463359f67dd3546db7294d236dd0ae991882ff?cid=5c0209d302044c9bbc4a8dd0a6d6afe6","track_number":4,"type":"track","uri":"spotify:track:0hrBpAOgrt8RXigk83LLNE"}],"limit":1,"next":"https://api.spotify.com/v1/search?query=Ace+of+Base+The+Sign&type=track&offset=1&limit=1","offset":0,"previous":null,"total":116}}
2018-02-17 14:41:29.318
	Action: do-what-it-says
2018-02-17 14:41:30.314
	Spotify Response: {"tracks":{"href":"https://api.spotify.com/v1/search?query=%22I+Want+it+That+Way%22&type=track&offset=0&limit=1","items":[{"album":{"album_type":"album","artists":[{"external_urls":{"spotify":"https://open.spotify.com/artist/5rSXSAkZ67PYJSvpUpkOr7"},"href":"https://api.spotify.com/v1/artists/5rSXSAkZ67PYJSvpUpkOr7","id":"5rSXSAkZ67PYJSvpUpkOr7","name":"Backstreet Boys","type":"artist","uri":"spotify:artist:5rSXSAkZ67PYJSvpUpkOr7"}],"available_markets":["AD","AR","AT","AU","BE","BG","BO","BR","CA","CH","CL","CO","CR","CY","CZ","DE","DK","DO","EC","EE","ES","FI","FR","GB","GR","GT","HK","HN","HU","ID","IE","IS","IT","JP","LI","LT","LU","LV","MC","MT","MX","MY","NI","NL","NO","NZ","PA","PE","PH","PL","PT","PY","SE","SG","SK","SV","TH","TR","TW","US","UY"],"external_urls":{"spotify":"https://open.spotify.com/album/1NslKOZobWxINFaFkLol3r"},"href":"https://api.spotify.com/v1/albums/1NslKOZobWxINFaFkLol3r","id":"1NslKOZobWxINFaFkLol3r","images":[{"height":640,"url":"https://i.scdn.co/image/91142eab23c3273fa73e490f2d04464c69423f75","width":640},{"height":300,"url":"https://i.scdn.co/image/a0c568812dd34dc1f0262dabec0773c27e36f27a","width":300},{"height":64,"url":"https://i.scdn.co/image/59281a4b01e936a3a5fa3d95d58b033780f0cf8c","width":64}],"name":"The Hits--Chapter One","type":"album","uri":"spotify:album:1NslKOZobWxINFaFkLol3r"},"artists":[{"external_urls":{"spotify":"https://open.spotify.com/artist/5rSXSAkZ67PYJSvpUpkOr7"},"href":"https://api.spotify.com/v1/artists/5rSXSAkZ67PYJSvpUpkOr7","id":"5rSXSAkZ67PYJSvpUpkOr7","name":"Backstreet Boys","type":"artist","uri":"spotify:artist:5rSXSAkZ67PYJSvpUpkOr7"}],"available_markets":["AD","AR","AT","AU","BE","BG","BO","BR","CA","CH","CL","CO","CR","CY","CZ","DE","DK","DO","EC","EE","ES","FI","FR","GB","GR","GT","HK","HN","HU","ID","IE","IS","IT","JP","LI","LT","LU","LV","MC","MT","MX","MY","NI","NL","NO","NZ","PA","PE","PH","PL","PT","PY","SE","SG","SK","SV","TH","TR","TW","US","UY"],"disc_number":1,"duration_ms":213600,"explicit":false,"external_ids":{"isrc":"USJI19910614"},"external_urls":{"spotify":"https://open.spotify.com/track/6e40mgJiCid5HRAGrbpGA6"},"href":"https://api.spotify.com/v1/tracks/6e40mgJiCid5HRAGrbpGA6","id":"6e40mgJiCid5HRAGrbpGA6","name":"I Want It That Way","popularity":78,"preview_url":"https://p.scdn.co/mp3-preview/e72a05dc3f69c891e3390c3ceaa77fad02f6b5f6?cid=5c0209d302044c9bbc4a8dd0a6d6afe6","track_number":1,"type":"track","uri":"spotify:track:6e40mgJiCid5HRAGrbpGA6"}],"limit":1,"next":"https://api.spotify.com/v1/search?query=%22I+Want+it+That+Way%22&type=track&offset=1&limit=1","offset":0,"previous":null,"total":513}}
2018-02-17 14:42:58.401
	Action: do-what-it-says
2018-02-17 14:42:59.472
	Spotify Response: {"tracks":{"href":"https://api.spotify.com/v1/search?query=%22I+Want+it+That+Way%22&type=track&offset=0&limit=1","items":[{"album":{"album_type":"album","artists":[{"external_urls":{"spotify":"https://open.spotify.com/artist/5rSXSAkZ67PYJSvpUpkOr7"},"href":"https://api.spotify.com/v1/artists/5rSXSAkZ67PYJSvpUpkOr7","id":"5rSXSAkZ67PYJSvpUpkOr7","name":"Backstreet Boys","type":"artist","uri":"spotify:artist:5rSXSAkZ67PYJSvpUpkOr7"}],"available_markets":["AD","AR","AT","AU","BE","BG","BO","BR","CA","CH","CL","CO","CR","CY","CZ","DE","DK","DO","EC","EE","ES","FI","FR","GB","GR","GT","HK","HN","HU","ID","IE","IS","IT","JP","LI","LT","LU","LV","MC","MT","MX","MY","NI","NL","NO","NZ","PA","PE","PH","PL","PT","PY","SE","SG","SK","SV","TH","TR","TW","US","UY"],"external_urls":{"spotify":"https://open.spotify.com/album/1NslKOZobWxINFaFkLol3r"},"href":"https://api.spotify.com/v1/albums/1NslKOZobWxINFaFkLol3r","id":"1NslKOZobWxINFaFkLol3r","images":[{"height":640,"url":"https://i.scdn.co/image/91142eab23c3273fa73e490f2d04464c69423f75","width":640},{"height":300,"url":"https://i.scdn.co/image/a0c568812dd34dc1f0262dabec0773c27e36f27a","width":300},{"height":64,"url":"https://i.scdn.co/image/59281a4b01e936a3a5fa3d95d58b033780f0cf8c","width":64}],"name":"The Hits--Chapter One","type":"album","uri":"spotify:album:1NslKOZobWxINFaFkLol3r"},"artists":[{"external_urls":{"spotify":"https://open.spotify.com/artist/5rSXSAkZ67PYJSvpUpkOr7"},"href":"https://api.spotify.com/v1/artists/5rSXSAkZ67PYJSvpUpkOr7","id":"5rSXSAkZ67PYJSvpUpkOr7","name":"Backstreet Boys","type":"artist","uri":"spotify:artist:5rSXSAkZ67PYJSvpUpkOr7"}],"available_markets":["AD","AR","AT","AU","BE","BG","BO","BR","CA","CH","CL","CO","CR","CY","CZ","DE","DK","DO","EC","EE","ES","FI","FR","GB","GR","GT","HK","HN","HU","ID","IE","IS","IT","JP","LI","LT","LU","LV","MC","MT","MX","MY","NI","NL","NO","NZ","PA","PE","PH","PL","PT","PY","SE","SG","SK","SV","TH","TR","TW","US","UY"],"disc_number":1,"duration_ms":213600,"explicit":false,"external_ids":{"isrc":"USJI19910614"},"external_urls":{"spotify":"https://open.spotify.com/track/6e40mgJiCid5HRAGrbpGA6"},"href":"https://api.spotify.com/v1/tracks/6e40mgJiCid5HRAGrbpGA6","id":"6e40mgJiCid5HRAGrbpGA6","name":"I Want It That Way","popularity":78,"preview_url":"https://p.scdn.co/mp3-preview/e72a05dc3f69c891e3390c3ceaa77fad02f6b5f6?cid=5c0209d302044c9bbc4a8dd0a6d6afe6","track_number":1,"type":"track","uri":"spotify:track:6e40mgJiCid5HRAGrbpGA6"}],"limit":1,"next":"https://api.spotify.com/v1/search?query=%22I+Want+it+That+Way%22&type=track&offset=1&limit=1","offset":0,"previous":null,"total":513}}